<svg xmlns="http://www.w3.org/2000/svg" width="19.092" height="19.092" viewBox="0 0 19.092 19.092">
  <g id="Сгруппировать_1" data-name="Сгруппировать 1" transform="translate(-14.454 -13.954)">
    <rect id="Прямоугольник_2" data-name="Прямоугольник 2" width="4" height="23" rx="2" transform="translate(14.454 16.782) rotate(-45)" fill="#fff"/>
    <rect id="Прямоугольник_3" data-name="Прямоугольник 3" width="4" height="23" rx="2" transform="translate(30.718 13.954) rotate(45)" fill="#fff"/>
  </g>
</svg>
